{
    "version": "https://jsonfeed.org/version/1",
    "title": "publii.solvio.sk",
    "description": "",
    "home_page_url": "https://publii.solvio.sk",
    "feed_url": "https://publii.solvio.sk/feed.json",
    "user_comment": "",
    "author": {
        "name": "solvio s.r.o."
    },
    "items": [
        {
            "id": "https://publii.solvio.sk/test-new-post.html",
            "url": "https://publii.solvio.sk/test-new-post.html",
            "title": "Test New Post",
            "author": {
                "name": "solvio s.r.o."
            },
            "tags": [
            ],
            "date_published": "2023-03-21T13:18:32+01:00",
            "date_modified": "2023-03-21T13:18:32+01:00"
        },
        {
            "id": "https://publii.solvio.sk/asdad.html",
            "url": "https://publii.solvio.sk/asdad.html",
            "title": "asdad",
            "summary": "daasdasda d da sdasdads",
            "content_html": "<p>daasdasda</p>\n<p>d</p>\n<p> </p>\n<p>da</p>\n<p>sdasdads</p>",
            "author": {
                "name": "solvio s.r.o."
            },
            "tags": [
            ],
            "date_published": "2023-03-21T12:27:13+01:00",
            "date_modified": "2023-03-21T12:27:13+01:00"
        },
        {
            "id": "https://publii.solvio.sk/adasdad.html",
            "url": "https://publii.solvio.sk/adasdad.html",
            "title": "adasdad",
            "summary": "asdad adas d ad asd",
            "content_html": "\n  <p>\n    asdad<br><br><br><br>adas<br>d<br>ad<br>asd<br>\n  </p>",
            "author": {
                "name": "solvio s.r.o."
            },
            "tags": [
            ],
            "date_published": "2023-03-21T12:26:48+01:00",
            "date_modified": "2023-03-21T12:26:48+01:00"
        },
        {
            "id": "https://publii.solvio.sk/test.html",
            "url": "https://publii.solvio.sk/test.html",
            "title": "Test",
            "author": {
                "name": "solvio s.r.o."
            },
            "tags": [
            ],
            "date_published": "2023-03-21T11:59:50+01:00",
            "date_modified": "2023-03-21T11:59:50+01:00"
        }
    ]
}
